{
  "name": "NVOII API",
  "version": "1.0.0",
  "description": "NVOII API Documentation",
  "title": "NVOII API Documentation",
  "url": "http://45.55.174.194/nvoii_manager/api",
  "sampleUrl": false,
  "defaultVersion": "0.0.0",
  "apidoc": "0.3.0",
  "generator": {
    "name": "apidoc",
    "time": "2018-06-27T19:17:42.691Z",
    "url": "http://apidocjs.com",
    "version": "0.17.6"
  }
}
